<svg width="80" height="80" viewBox="0 0 80 80" fill="none" xmlns="http://www.w3.org/2000/svg">
<path d="M36.25 31.25H43.75C46.5198 31.25 48.8428 29.4348 49.6625 26.9385C46.6888 25.6927 43.4265 25 40 25C36.5735 25 33.3112 25.6927 30.3375 26.9385C31.1572 29.4348 33.4802 31.25 36.25 31.25Z" fill="#44B0E2"/>
<path d="M54.09 29.3536C52.301 33.4515 48.0737 36.25 43.3649 36.25H42.5V74.8737C55.1324 73.6188 65 62.9626 65 50C65 41.4203 60.675 33.855 54.09 29.3536Z" fill="#44B0E2"/>
<path d="M28.75 70H32.5V61.25H28.75V56.25H37.5V36.25H36.25C31.5875 36.25 27.6001 33.4076 25.8936 29.3652C19.3188 33.8702 15 41.4276 15 50C15 59.7552 20.6 68.1836 28.75 72.3035V70Z" fill="#44B0E2"/>
<path d="M43.75 17.5H42.9773L42.5 18.4552C42.0239 19.4073 41.0663 20 40 20C38.9337 20 37.9761 19.4073 37.5 18.4552L37.0227 17.5H36.25C32.1136 17.5 28.75 20.8636 28.75 25C28.75 29.1364 32.1136 32.5 36.25 32.5H43.75C47.8864 32.5 51.25 29.1364 51.25 25C51.25 20.8636 47.8864 17.5 43.75 17.5ZM43.75 30H36.25C33.4924 30 31.25 27.7576 31.25 25C31.25 22.486 33.1152 20.3986 35.5334 20.0513C36.5015 21.5747 38.1665 22.5 40 22.5C41.8335 22.5 43.4985 21.5747 44.4666 20.0513C46.8848 20.3986 48.75 22.486 48.75 25C48.75 27.7576 46.5076 30 43.75 30Z" fill="#5E6D79"/>
<path d="M43.75 12.5H36.6351C29.8486 12.5 24.1998 17.6276 23.7762 24.1711C23.5498 27.6703 24.74 30.9998 27.1277 33.5474C29.4836 36.0602 32.8088 37.5 36.25 37.5V55H27.5V62.5H31.25V68.75H27.5V76.25H36.4801C36.9977 77.7014 38.3728 78.75 40 78.75C42.0672 78.75 43.75 77.0673 43.75 75V37.4939C50.3637 37.3053 55.8075 32.2498 56.2237 25.8289C56.4502 22.3297 55.26 19.0002 52.8723 16.4526C50.5163 13.9398 47.1911 12.5 43.75 12.5ZM40 76.25C39.3115 76.25 38.75 75.6897 38.75 75V67.5H36.25V73.75H30V71.25H33.75V60H30V57.5H36.25V63.75H38.75V46.25H41.25V75C41.25 75.6897 40.6885 76.25 40 76.25ZM38.75 41.25H41.25V43.75H38.75V41.25ZM53.7274 25.6677C53.3886 30.9015 48.8373 35 43.3648 35H41.25V38.75H38.75V35H36.25C33.4564 35 30.8636 33.8776 28.9526 31.8378C27.0422 29.7998 26.0901 27.1338 26.2713 24.3323C26.6113 19.0985 31.1627 15 36.6351 15H43.75C46.5436 15 49.1363 16.1224 51.0473 18.1622C52.9577 20.2002 53.9087 22.8662 53.7274 25.6677Z" fill="#5E6D79"/>
<path d="M22.1027 2.2998L24.4116 1.34338L25.3687 3.65234L23.0591 4.60937L22.1027 2.2998Z" fill="#5E6D79"/>
<path d="M24.0161 6.91895L26.3251 5.96191L27.2821 8.27148L24.9725 9.22791L24.0161 6.91895Z" fill="#5E6D79"/>
<path d="M2.59277 24.4128L3.54797 22.1027L5.85815 23.0585L4.90234 25.3687L2.59277 24.4128Z" fill="#5E6D79"/>
<path d="M7.2113 26.3263L8.16833 24.0167L10.4779 24.9738L9.52087 27.2833L7.2113 26.3263Z" fill="#5E6D79"/>
<path d="M2.59338 55.5865L4.90356 54.6307L5.85938 56.9403L3.54919 57.8967L2.59338 55.5865Z" fill="#5E6D79"/>
<path d="M7.21069 53.6725L9.52026 52.7155L10.4773 55.025L8.16772 55.9821L7.21069 53.6725Z" fill="#5E6D79"/>
<path d="M74.1388 56.9428L75.0946 54.6326L77.4048 55.5884L76.449 57.8986L74.1388 56.9428Z" fill="#5E6D79"/>
<path d="M69.519 55.0275L70.4761 52.7179L72.785 53.6749L71.828 55.9845L69.519 55.0275Z" fill="#5E6D79"/>
<path d="M74.1382 23.0591L76.4484 22.1033L77.4042 24.4135L75.094 25.3693L74.1382 23.0591Z" fill="#5E6D79"/>
<path d="M69.5197 24.9738L71.8292 24.0167L72.7863 26.3263L70.4767 27.2833L69.5197 24.9738Z" fill="#5E6D79"/>
<path d="M54.6301 3.65417L55.5872 1.3446L57.8967 2.30164L56.9397 4.61121L54.6301 3.65417Z" fill="#5E6D79"/>
<path d="M52.7161 8.27332L53.6731 5.96375L55.9827 6.92078L55.0256 9.23035L52.7161 8.27332Z" fill="#5E6D79"/>
<path d="M5.52917 7.29614L7.29675 5.52856L17.9034 16.1353L16.1359 17.9028L5.52917 7.29614Z" fill="#5E6D79"/>
<path d="M1.25 38.75H13.75V41.25H1.25V38.75Z" fill="#5E6D79"/>
<path d="M66.25 38.75H78.75V41.25H66.25V38.75Z" fill="#5E6D79"/>
<path d="M62.0966 16.1365L72.7032 5.52979L74.4708 7.29736L63.8641 17.9041L62.0966 16.1365Z" fill="#5E6D79"/>
<path d="M38.75 1.25H41.25V3.75H38.75V1.25Z" fill="#5E6D79"/>
<path d="M38.75 6.25H41.25V8.75H38.75V6.25Z" fill="#5E6D79"/>
</svg>
